-- Merging decision tree log ---
manifest
ADDED from D:\kaiyuanyanjiu\HugeMountain\app\src\main\AndroidManifest.xml:2:1-862:12
	package
		ADDED from D:\kaiyuanyanjiu\HugeMountain\app\src\main\AndroidManifest.xml:3:5-37
		INJECTED from D:\kaiyuanyanjiu\HugeMountain\app\src\main\AndroidManifest.xml
		INJECTED from D:\kaiyuanyanjiu\HugeMountain\app\src\main\AndroidManifest.xml
	android:versionName
		ADDED from D:\kaiyuanyanjiu\HugeMountain\app\src\main\AndroidManifest.xml:5:5-32
	android:versionCode
		ADDED from D:\kaiyuanyanjiu\HugeMountain\app\src\main\AndroidManifest.xml:4:5-28
		INJECTED from D:\kaiyuanyanjiu\HugeMountain\app\src\main\AndroidManifest.xml
		INJECTED from D:\kaiyuanyanjiu\HugeMountain\app\src\main\AndroidManifest.xml
	xmlns:android
		ADDED from D:\kaiyuanyanjiu\HugeMountain\app\src\main\AndroidManifest.xml:2:11-69
uses-sdk
ADDED from D:\kaiyuanyanjiu\HugeMountain\app\src\main\AndroidManifest.xml:7:5-9:41
	android:targetSdkVersion
		ADDED from D:\kaiyuanyanjiu\HugeMountain\app\src\main\AndroidManifest.xml:9:9-38
		INJECTED from D:\kaiyuanyanjiu\HugeMountain\app\src\main\AndroidManifest.xml
		INJECTED from D:\kaiyuanyanjiu\HugeMountain\app\src\main\AndroidManifest.xml
	android:minSdkVersion
		ADDED from D:\kaiyuanyanjiu\HugeMountain\app\src\main\AndroidManifest.xml:8:9-35
		INJECTED from D:\kaiyuanyanjiu\HugeMountain\app\src\main\AndroidManifest.xml
		INJECTED from D:\kaiyuanyanjiu\HugeMountain\app\src\main\AndroidManifest.xml
uses-permission#android.permission.BAIDU_LOCATION_SERVICE
ADDED from D:\kaiyuanyanjiu\HugeMountain\app\src\main\AndroidManifest.xml:11:5-12:23
	android:name
		ADDED from D:\kaiyuanyanjiu\HugeMountain\app\src\main\AndroidManifest.xml:11:22-78
uses-permission#android.permission.ACCESS_NETWORK_STATE
ADDED from D:\kaiyuanyanjiu\HugeMountain\app\src\main\AndroidManifest.xml:13:5-14:23
	android:name
		ADDED from D:\kaiyuanyanjiu\HugeMountain\app\src\main\AndroidManifest.xml:13:22-76
uses-permission#android.permission.ACCESS_COARSE_LOCATION
ADDED from D:\kaiyuanyanjiu\HugeMountain\app\src\main\AndroidManifest.xml:15:5-16:23
	android:name
		ADDED from D:\kaiyuanyanjiu\HugeMountain\app\src\main\AndroidManifest.xml:15:22-78
uses-permission#android.permission.INTERNET
ADDED from D:\kaiyuanyanjiu\HugeMountain\app\src\main\AndroidManifest.xml:17:5-18:23
	android:name
		ADDED from D:\kaiyuanyanjiu\HugeMountain\app\src\main\AndroidManifest.xml:17:22-64
uses-permission#android.permission.ACCESS_MOCK_LOCATION
ADDED from D:\kaiyuanyanjiu\HugeMountain\app\src\main\AndroidManifest.xml:19:5-20:23
	android:name
		ADDED from D:\kaiyuanyanjiu\HugeMountain\app\src\main\AndroidManifest.xml:19:22-76
uses-permission#android.permission.ACCESS_WIFI_STATE
ADDED from D:\kaiyuanyanjiu\HugeMountain\app\src\main\AndroidManifest.xml:21:5-76
	android:name
		ADDED from D:\kaiyuanyanjiu\HugeMountain\app\src\main\AndroidManifest.xml:21:22-73
uses-permission#android.permission.WRITE_EXTERNAL_STORAGE
ADDED from D:\kaiyuanyanjiu\HugeMountain\app\src\main\AndroidManifest.xml:22:5-81
	android:name
		ADDED from D:\kaiyuanyanjiu\HugeMountain\app\src\main\AndroidManifest.xml:22:22-78
permission#com.aozhi.hugemountain.permission.JPUSH_MESSAGE
ADDED from D:\kaiyuanyanjiu\HugeMountain\app\src\main\AndroidManifest.xml:24:5-26:47
	android:protectionLevel
		ADDED from D:\kaiyuanyanjiu\HugeMountain\app\src\main\AndroidManifest.xml:26:9-44
	android:name
		ADDED from D:\kaiyuanyanjiu\HugeMountain\app\src\main\AndroidManifest.xml:25:9-71
uses-permission#com.aozhi.hugemountain.permission.JPUSH_MESSAGE
ADDED from D:\kaiyuanyanjiu\HugeMountain\app\src\main\AndroidManifest.xml:29:5-87
	android:name
		ADDED from D:\kaiyuanyanjiu\HugeMountain\app\src\main\AndroidManifest.xml:29:22-84
uses-permission#android.permission.RECEIVE_USER_PRESENT
ADDED from D:\kaiyuanyanjiu\HugeMountain\app\src\main\AndroidManifest.xml:30:5-79
	android:name
		ADDED from D:\kaiyuanyanjiu\HugeMountain\app\src\main\AndroidManifest.xml:30:22-76
uses-permission#android.permission.WAKE_LOCK
ADDED from D:\kaiyuanyanjiu\HugeMountain\app\src\main\AndroidManifest.xml:32:5-68
	android:name
		ADDED from D:\kaiyuanyanjiu\HugeMountain\app\src\main\AndroidManifest.xml:32:22-65
uses-permission#android.permission.READ_PHONE_STATE
ADDED from D:\kaiyuanyanjiu\HugeMountain\app\src\main\AndroidManifest.xml:33:5-75
	android:name
		ADDED from D:\kaiyuanyanjiu\HugeMountain\app\src\main\AndroidManifest.xml:33:22-72
uses-permission#android.permission.READ_EXTERNAL_STORAGE
ADDED from D:\kaiyuanyanjiu\HugeMountain\app\src\main\AndroidManifest.xml:35:5-80
	android:name
		ADDED from D:\kaiyuanyanjiu\HugeMountain\app\src\main\AndroidManifest.xml:35:22-77
uses-permission#android.permission.WRITE_SETTINGS
ADDED from D:\kaiyuanyanjiu\HugeMountain\app\src\main\AndroidManifest.xml:36:5-73
	android:name
		ADDED from D:\kaiyuanyanjiu\HugeMountain\app\src\main\AndroidManifest.xml:36:22-70
uses-permission#android.permission.VIBRATE
ADDED from D:\kaiyuanyanjiu\HugeMountain\app\src\main\AndroidManifest.xml:37:5-66
	android:name
		ADDED from D:\kaiyuanyanjiu\HugeMountain\app\src\main\AndroidManifest.xml:37:22-63
uses-permission#android.permission.MOUNT_UNMOUNT_FILESYSTEMS
ADDED from D:\kaiyuanyanjiu\HugeMountain\app\src\main\AndroidManifest.xml:38:5-84
	android:name
		ADDED from D:\kaiyuanyanjiu\HugeMountain\app\src\main\AndroidManifest.xml:38:22-81
uses-permission#android.permission.SYSTEM_ALERT_WINDOW
ADDED from D:\kaiyuanyanjiu\HugeMountain\app\src\main\AndroidManifest.xml:40:5-78
	android:name
		ADDED from D:\kaiyuanyanjiu\HugeMountain\app\src\main\AndroidManifest.xml:40:22-75
uses-permission#android.permission.READ_CONTACTS
ADDED from D:\kaiyuanyanjiu\HugeMountain\app\src\main\AndroidManifest.xml:41:5-72
	android:name
		ADDED from D:\kaiyuanyanjiu\HugeMountain\app\src\main\AndroidManifest.xml:41:22-69
uses-permission#android.permission.RECEIVE_SMS
ADDED from D:\kaiyuanyanjiu\HugeMountain\app\src\main\AndroidManifest.xml:47:5-70
	android:name
		ADDED from D:\kaiyuanyanjiu\HugeMountain\app\src\main\AndroidManifest.xml:47:22-67
uses-permission#android.permission.GET_TASKS
ADDED from D:\kaiyuanyanjiu\HugeMountain\app\src\main\AndroidManifest.xml:48:5-68
	android:name
		ADDED from D:\kaiyuanyanjiu\HugeMountain\app\src\main\AndroidManifest.xml:48:22-65
uses-permission#android.permission.ACCESS_FINE_LOCATION
ADDED from D:\kaiyuanyanjiu\HugeMountain\app\src\main\AndroidManifest.xml:49:5-79
	android:name
		ADDED from D:\kaiyuanyanjiu\HugeMountain\app\src\main\AndroidManifest.xml:49:22-76
uses-permission#android.permission.CHANGE_WIFI_STATE
ADDED from D:\kaiyuanyanjiu\HugeMountain\app\src\main\AndroidManifest.xml:54:5-76
	android:name
		ADDED from D:\kaiyuanyanjiu\HugeMountain\app\src\main\AndroidManifest.xml:54:22-73
uses-permission#android.permission.ACCESS_LOCATION_EXTRA_COMMANDS
ADDED from D:\kaiyuanyanjiu\HugeMountain\app\src\main\AndroidManifest.xml:56:5-89
	android:name
		ADDED from D:\kaiyuanyanjiu\HugeMountain\app\src\main\AndroidManifest.xml:56:22-86
uses-permission#android.permission.CHANGE_NETWORK_STATE
ADDED from D:\kaiyuanyanjiu\HugeMountain\app\src\main\AndroidManifest.xml:57:5-79
	android:name
		ADDED from D:\kaiyuanyanjiu\HugeMountain\app\src\main\AndroidManifest.xml:57:22-76
supports-screens
ADDED from D:\kaiyuanyanjiu\HugeMountain\app\src\main\AndroidManifest.xml:59:5-64:39
	android:largeScreens
		ADDED from D:\kaiyuanyanjiu\HugeMountain\app\src\main\AndroidManifest.xml:61:9-36
	android:smallScreens
		ADDED from D:\kaiyuanyanjiu\HugeMountain\app\src\main\AndroidManifest.xml:64:9-36
	android:normalScreens
		ADDED from D:\kaiyuanyanjiu\HugeMountain\app\src\main\AndroidManifest.xml:62:9-37
	android:resizeable
		ADDED from D:\kaiyuanyanjiu\HugeMountain\app\src\main\AndroidManifest.xml:63:9-34
	android:anyDensity
		ADDED from D:\kaiyuanyanjiu\HugeMountain\app\src\main\AndroidManifest.xml:60:9-34
instrumentation#android.test.InstrumentationTestRunner
ADDED from D:\kaiyuanyanjiu\HugeMountain\app\src\main\AndroidManifest.xml:66:5-68:58
	android:targetPackage
		ADDED from D:\kaiyuanyanjiu\HugeMountain\app\src\main\AndroidManifest.xml:68:9-55
	android:name
		ADDED from D:\kaiyuanyanjiu\HugeMountain\app\src\main\AndroidManifest.xml:67:9-62
uses-permission#android.permission.CALL_PHONE
ADDED from D:\kaiyuanyanjiu\HugeMountain\app\src\main\AndroidManifest.xml:70:5-69
	android:name
		ADDED from D:\kaiyuanyanjiu\HugeMountain\app\src\main\AndroidManifest.xml:70:22-66
uses-permission#com.android.launcher.permission.READ_SETTINGS
ADDED from D:\kaiyuanyanjiu\HugeMountain\app\src\main\AndroidManifest.xml:75:5-85
	android:name
		ADDED from D:\kaiyuanyanjiu\HugeMountain\app\src\main\AndroidManifest.xml:75:22-82
uses-permission#android.permission.READ_LOGS
ADDED from D:\kaiyuanyanjiu\HugeMountain\app\src\main\AndroidManifest.xml:112:5-113:23
	android:name
		ADDED from D:\kaiyuanyanjiu\HugeMountain\app\src\main\AndroidManifest.xml:112:22-65
uses-permission#android.permission.ACCES_MOCK_LOCATION
ADDED from D:\kaiyuanyanjiu\HugeMountain\app\src\main\AndroidManifest.xml:119:5-78
	android:name
		ADDED from D:\kaiyuanyanjiu\HugeMountain\app\src\main\AndroidManifest.xml:119:22-75
uses-permission#android.permission.ACCESS_GPS
ADDED from D:\kaiyuanyanjiu\HugeMountain\app\src\main\AndroidManifest.xml:125:5-69
	android:name
		ADDED from D:\kaiyuanyanjiu\HugeMountain\app\src\main\AndroidManifest.xml:125:22-66
uses-permission#android.permission.BROADCAST_STICKY
ADDED from D:\kaiyuanyanjiu\HugeMountain\app\src\main\AndroidManifest.xml:129:5-75
	android:name
		ADDED from D:\kaiyuanyanjiu\HugeMountain\app\src\main\AndroidManifest.xml:129:22-72
uses-permission#android.permission.PROCESS_OUTGOING_CALLS
ADDED from D:\kaiyuanyanjiu\HugeMountain\app\src\main\AndroidManifest.xml:132:5-81
	android:name
		ADDED from D:\kaiyuanyanjiu\HugeMountain\app\src\main\AndroidManifest.xml:132:22-78
uses-permission#android.permission.MODIFY_AUDIO_SETTINGS
ADDED from D:\kaiyuanyanjiu\HugeMountain\app\src\main\AndroidManifest.xml:134:5-80
	android:name
		ADDED from D:\kaiyuanyanjiu\HugeMountain\app\src\main\AndroidManifest.xml:134:22-77
uses-permission#android.permission.RECORD_AUDIO
ADDED from D:\kaiyuanyanjiu\HugeMountain\app\src\main\AndroidManifest.xml:135:5-71
	android:name
		ADDED from D:\kaiyuanyanjiu\HugeMountain\app\src\main\AndroidManifest.xml:135:22-68
uses-permission#android.permission.CAMERA
ADDED from D:\kaiyuanyanjiu\HugeMountain\app\src\main\AndroidManifest.xml:136:5-65
	android:name
		ADDED from D:\kaiyuanyanjiu\HugeMountain\app\src\main\AndroidManifest.xml:136:22-62
application
ADDED from D:\kaiyuanyanjiu\HugeMountain\app\src\main\AndroidManifest.xml:145:5-860:19
	android:screenOrientation
		ADDED from D:\kaiyuanyanjiu\HugeMountain\app\src\main\AndroidManifest.xml:150:9-45
	android:label
		ADDED from D:\kaiyuanyanjiu\HugeMountain\app\src\main\AndroidManifest.xml:149:9-41
	android:allowBackup
		ADDED from D:\kaiyuanyanjiu\HugeMountain\app\src\main\AndroidManifest.xml:147:9-35
	android:icon
		ADDED from D:\kaiyuanyanjiu\HugeMountain\app\src\main\AndroidManifest.xml:148:9-38
	android:theme
		ADDED from D:\kaiyuanyanjiu\HugeMountain\app\src\main\AndroidManifest.xml:151:9-56
	android:name
		ADDED from D:\kaiyuanyanjiu\HugeMountain\app\src\main\AndroidManifest.xml:146:9-60
meta-data#BaiduMobAd_STAT_ID
ADDED from D:\kaiyuanyanjiu\HugeMountain\app\src\main\AndroidManifest.xml:152:9-154:42
	android:value
		ADDED from D:\kaiyuanyanjiu\HugeMountain\app\src\main\AndroidManifest.xml:154:13-39
	android:name
		ADDED from D:\kaiyuanyanjiu\HugeMountain\app\src\main\AndroidManifest.xml:153:13-46
meta-data#com.baidu.lbsapi.API_KEY
ADDED from D:\kaiyuanyanjiu\HugeMountain\app\src\main\AndroidManifest.xml:155:9-157:56
	android:value
		ADDED from D:\kaiyuanyanjiu\HugeMountain\app\src\main\AndroidManifest.xml:157:13-53
	android:name
		ADDED from D:\kaiyuanyanjiu\HugeMountain\app\src\main\AndroidManifest.xml:156:13-52
activity#com.aozhi.hugemountain.activity.SplashActivity
ADDED from D:\kaiyuanyanjiu\HugeMountain\app\src\main\AndroidManifest.xml:159:9-174:20
	android:screenOrientation
		ADDED from D:\kaiyuanyanjiu\HugeMountain\app\src\main\AndroidManifest.xml:161:13-49
	android:name
		ADDED from D:\kaiyuanyanjiu\HugeMountain\app\src\main\AndroidManifest.xml:160:13-52
intent-filter#android.intent.action.MAIN+android.intent.category.LAUNCHER
ADDED from D:\kaiyuanyanjiu\HugeMountain\app\src\main\AndroidManifest.xml:162:13-165:29
action#android.intent.action.MAIN
ADDED from D:\kaiyuanyanjiu\HugeMountain\app\src\main\AndroidManifest.xml:163:17-69
	android:name
		ADDED from D:\kaiyuanyanjiu\HugeMountain\app\src\main\AndroidManifest.xml:163:25-66
category#android.intent.category.LAUNCHER
ADDED from D:\kaiyuanyanjiu\HugeMountain\app\src\main\AndroidManifest.xml:164:17-77
	android:name
		ADDED from D:\kaiyuanyanjiu\HugeMountain\app\src\main\AndroidManifest.xml:164:27-74
intent-filter#android.intent.action.VIEW+android.intent.category.BROWSABLE+android.intent.category.DEFAULT
ADDED from D:\kaiyuanyanjiu\HugeMountain\app\src\main\AndroidManifest.xml:166:13-173:29
category#android.intent.category.BROWSABLE
ADDED from D:\kaiyuanyanjiu\HugeMountain\app\src\main\AndroidManifest.xml:167:17-78
	android:name
		ADDED from D:\kaiyuanyanjiu\HugeMountain\app\src\main\AndroidManifest.xml:167:27-75
action#android.intent.action.VIEW
ADDED from D:\kaiyuanyanjiu\HugeMountain\app\src\main\AndroidManifest.xml:168:17-69
	android:name
		ADDED from D:\kaiyuanyanjiu\HugeMountain\app\src\main\AndroidManifest.xml:168:25-66
category#android.intent.category.DEFAULT
ADDED from D:\kaiyuanyanjiu\HugeMountain\app\src\main\AndroidManifest.xml:169:17-76
	android:name
		ADDED from D:\kaiyuanyanjiu\HugeMountain\app\src\main\AndroidManifest.xml:169:27-73
data
ADDED from D:\kaiyuanyanjiu\HugeMountain\app\src\main\AndroidManifest.xml:170:17-172:59
	android:host
		ADDED from D:\kaiyuanyanjiu\HugeMountain\app\src\main\AndroidManifest.xml:171:21-41
	android:scheme
		ADDED from D:\kaiyuanyanjiu\HugeMountain\app\src\main\AndroidManifest.xml:172:21-56
activity#com.baidu.navi.sdkdemo.RouteGuideDemo
ADDED from D:\kaiyuanyanjiu\HugeMountain\app\src\main\AndroidManifest.xml:175:9-183:20
	android:label
		ADDED from D:\kaiyuanyanjiu\HugeMountain\app\src\main\AndroidManifest.xml:178:13-56
	android:configChanges
		ADDED from D:\kaiyuanyanjiu\HugeMountain\app\src\main\AndroidManifest.xml:177:13-83
	android:name
		ADDED from D:\kaiyuanyanjiu\HugeMountain\app\src\main\AndroidManifest.xml:176:13-65
intent-filter#android.intent.action.MAIN+android.intent.category.BAIDUNAVISDK_DEMO
ADDED from D:\kaiyuanyanjiu\HugeMountain\app\src\main\AndroidManifest.xml:179:13-182:29
category#android.intent.category.BAIDUNAVISDK_DEMO
ADDED from D:\kaiyuanyanjiu\HugeMountain\app\src\main\AndroidManifest.xml:181:17-86
	android:name
		ADDED from D:\kaiyuanyanjiu\HugeMountain\app\src\main\AndroidManifest.xml:181:27-83
activity#com.aozhi.hugemountain.activity.EvaListActivity
ADDED from D:\kaiyuanyanjiu\HugeMountain\app\src\main\AndroidManifest.xml:184:9-62
	android:name
		ADDED from D:\kaiyuanyanjiu\HugeMountain\app\src\main\AndroidManifest.xml:184:19-59
activity#com.aozhi.hugemountain.activity.StaffCollectActivity
ADDED from D:\kaiyuanyanjiu\HugeMountain\app\src\main\AndroidManifest.xml:185:9-67
	android:name
		ADDED from D:\kaiyuanyanjiu\HugeMountain\app\src\main\AndroidManifest.xml:185:19-64
activity#com.mob.tools.MobUIShell
ADDED from D:\kaiyuanyanjiu\HugeMountain\app\src\main\AndroidManifest.xml:186:9-190:70
	android:windowSoftInputMode
		ADDED from D:\kaiyuanyanjiu\HugeMountain\app\src\main\AndroidManifest.xml:190:13-67
	android:configChanges
		ADDED from D:\kaiyuanyanjiu\HugeMountain\app\src\main\AndroidManifest.xml:188:13-74
	android:theme
		ADDED from D:\kaiyuanyanjiu\HugeMountain\app\src\main\AndroidManifest.xml:189:13-60
	android:name
		ADDED from D:\kaiyuanyanjiu\HugeMountain\app\src\main\AndroidManifest.xml:187:13-52
activity#com.aozhi.hugemountain.StoreDetailsActivity
ADDED from D:\kaiyuanyanjiu\HugeMountain\app\src\main\AndroidManifest.xml:191:9-194:52
	android:screenOrientation
		ADDED from D:\kaiyuanyanjiu\HugeMountain\app\src\main\AndroidManifest.xml:194:13-49
	android:label
		ADDED from D:\kaiyuanyanjiu\HugeMountain\app\src\main\AndroidManifest.xml:193:13-56
	android:name
		ADDED from D:\kaiyuanyanjiu\HugeMountain\app\src\main\AndroidManifest.xml:192:13-49
activity#com.aozhi.hugemountain.activity.LoginsActivity
ADDED from D:\kaiyuanyanjiu\HugeMountain\app\src\main\AndroidManifest.xml:195:9-198:52
	android:screenOrientation
		ADDED from D:\kaiyuanyanjiu\HugeMountain\app\src\main\AndroidManifest.xml:198:13-49
	android:label
		ADDED from D:\kaiyuanyanjiu\HugeMountain\app\src\main\AndroidManifest.xml:197:13-56
	android:name
		ADDED from D:\kaiyuanyanjiu\HugeMountain\app\src\main\AndroidManifest.xml:196:13-52
activity#com.aozhi.hugemountain.activity.MapActivity
ADDED from D:\kaiyuanyanjiu\HugeMountain\app\src\main\AndroidManifest.xml:199:9-202:52
	android:screenOrientation
		ADDED from D:\kaiyuanyanjiu\HugeMountain\app\src\main\AndroidManifest.xml:202:13-49
	android:label
		ADDED from D:\kaiyuanyanjiu\HugeMountain\app\src\main\AndroidManifest.xml:201:13-56
	android:name
		ADDED from D:\kaiyuanyanjiu\HugeMountain\app\src\main\AndroidManifest.xml:200:13-49
activity#com.aozhi.hugemountain.activity.TimeSettingActivity
ADDED from D:\kaiyuanyanjiu\HugeMountain\app\src\main\AndroidManifest.xml:203:9-66
	android:name
		ADDED from D:\kaiyuanyanjiu\HugeMountain\app\src\main\AndroidManifest.xml:203:19-63
activity#com.aozhi.hugemountain.activity.RegistStaffActivity
ADDED from D:\kaiyuanyanjiu\HugeMountain\app\src\main\AndroidManifest.xml:204:9-66
	android:name
		ADDED from D:\kaiyuanyanjiu\HugeMountain\app\src\main\AndroidManifest.xml:204:19-63
activity#com.aozhi.hugemountain.activity.LocationActivity
ADDED from D:\kaiyuanyanjiu\HugeMountain\app\src\main\AndroidManifest.xml:205:9-208:52
	android:screenOrientation
		ADDED from D:\kaiyuanyanjiu\HugeMountain\app\src\main\AndroidManifest.xml:208:13-49
	android:label
		ADDED from D:\kaiyuanyanjiu\HugeMountain\app\src\main\AndroidManifest.xml:207:13-56
	android:name
		ADDED from D:\kaiyuanyanjiu\HugeMountain\app\src\main\AndroidManifest.xml:206:13-54
activity#com.aozhi.hugemountain.activity.ImagePagerActivity
ADDED from D:\kaiyuanyanjiu\HugeMountain\app\src\main\AndroidManifest.xml:209:9-212:52
	android:screenOrientation
		ADDED from D:\kaiyuanyanjiu\HugeMountain\app\src\main\AndroidManifest.xml:212:13-49
	android:label
		ADDED from D:\kaiyuanyanjiu\HugeMountain\app\src\main\AndroidManifest.xml:211:13-56
	android:name
		ADDED from D:\kaiyuanyanjiu\HugeMountain\app\src\main\AndroidManifest.xml:210:13-56
activity#com.aozhi.hugemountain.activity.ShiPinActivity
ADDED from D:\kaiyuanyanjiu\HugeMountain\app\src\main\AndroidManifest.xml:213:9-217:20
	android:screenOrientation
		ADDED from D:\kaiyuanyanjiu\HugeMountain\app\src\main\AndroidManifest.xml:216:13-49
	android:label
		ADDED from D:\kaiyuanyanjiu\HugeMountain\app\src\main\AndroidManifest.xml:215:13-56
	android:name
		ADDED from D:\kaiyuanyanjiu\HugeMountain\app\src\main\AndroidManifest.xml:214:13-52
activity#com.aozhi.hugemountain.activity.HomeActivity
ADDED from D:\kaiyuanyanjiu\HugeMountain\app\src\main\AndroidManifest.xml:218:9-222:20
	android:screenOrientation
		ADDED from D:\kaiyuanyanjiu\HugeMountain\app\src\main\AndroidManifest.xml:221:13-49
	android:label
		ADDED from D:\kaiyuanyanjiu\HugeMountain\app\src\main\AndroidManifest.xml:220:13-56
	android:name
		ADDED from D:\kaiyuanyanjiu\HugeMountain\app\src\main\AndroidManifest.xml:219:13-50
activity#com.aozhi.hugemountain.activity.StaffMoneyActivity
ADDED from D:\kaiyuanyanjiu\HugeMountain\app\src\main\AndroidManifest.xml:223:9-227:20
	android:screenOrientation
		ADDED from D:\kaiyuanyanjiu\HugeMountain\app\src\main\AndroidManifest.xml:226:13-49
	android:label
		ADDED from D:\kaiyuanyanjiu\HugeMountain\app\src\main\AndroidManifest.xml:225:13-56
	android:name
		ADDED from D:\kaiyuanyanjiu\HugeMountain\app\src\main\AndroidManifest.xml:224:13-56
activity#com.aozhi.hugemountain.activity.StorePicActivity
ADDED from D:\kaiyuanyanjiu\HugeMountain\app\src\main\AndroidManifest.xml:228:9-232:20
	android:screenOrientation
		ADDED from D:\kaiyuanyanjiu\HugeMountain\app\src\main\AndroidManifest.xml:231:13-49
	android:label
		ADDED from D:\kaiyuanyanjiu\HugeMountain\app\src\main\AndroidManifest.xml:230:13-56
	android:name
		ADDED from D:\kaiyuanyanjiu\HugeMountain\app\src\main\AndroidManifest.xml:229:13-54
activity#com.aozhi.hugemountain.activity.RegisterActivity
ADDED from D:\kaiyuanyanjiu\HugeMountain\app\src\main\AndroidManifest.xml:233:9-237:20
	android:screenOrientation
		ADDED from D:\kaiyuanyanjiu\HugeMountain\app\src\main\AndroidManifest.xml:236:13-49
	android:label
		ADDED from D:\kaiyuanyanjiu\HugeMountain\app\src\main\AndroidManifest.xml:235:13-56
	android:name
		ADDED from D:\kaiyuanyanjiu\HugeMountain\app\src\main\AndroidManifest.xml:234:13-54
activity#com.aozhi.hugemountain.activity.CodoActivity
ADDED from D:\kaiyuanyanjiu\HugeMountain\app\src\main\AndroidManifest.xml:238:8-242:20
	android:screenOrientation
		ADDED from D:\kaiyuanyanjiu\HugeMountain\app\src\main\AndroidManifest.xml:241:13-49
	android:label
		ADDED from D:\kaiyuanyanjiu\HugeMountain\app\src\main\AndroidManifest.xml:240:13-56
	android:name
		ADDED from D:\kaiyuanyanjiu\HugeMountain\app\src\main\AndroidManifest.xml:239:13-50
activity#com.aozhi.hugemountain.activity.CityActivity
ADDED from D:\kaiyuanyanjiu\HugeMountain\app\src\main\AndroidManifest.xml:243:9-247:20
	android:screenOrientation
		ADDED from D:\kaiyuanyanjiu\HugeMountain\app\src\main\AndroidManifest.xml:246:13-49
	android:label
		ADDED from D:\kaiyuanyanjiu\HugeMountain\app\src\main\AndroidManifest.xml:245:13-56
	android:name
		ADDED from D:\kaiyuanyanjiu\HugeMountain\app\src\main\AndroidManifest.xml:244:13-50
activity#com.aozhi.hugemountain.activity.LoginActivity
ADDED from D:\kaiyuanyanjiu\HugeMountain\app\src\main\AndroidManifest.xml:248:9-252:20
	android:screenOrientation
		ADDED from D:\kaiyuanyanjiu\HugeMountain\app\src\main\AndroidManifest.xml:251:13-49
	android:label
		ADDED from D:\kaiyuanyanjiu\HugeMountain\app\src\main\AndroidManifest.xml:250:13-56
	android:name
		ADDED from D:\kaiyuanyanjiu\HugeMountain\app\src\main\AndroidManifest.xml:249:13-51
activity#com.aozhi.hugemountain.activity.SettingActivity
ADDED from D:\kaiyuanyanjiu\HugeMountain\app\src\main\AndroidManifest.xml:253:9-257:20
	android:screenOrientation
		ADDED from D:\kaiyuanyanjiu\HugeMountain\app\src\main\AndroidManifest.xml:256:13-49
	android:label
		ADDED from D:\kaiyuanyanjiu\HugeMountain\app\src\main\AndroidManifest.xml:255:13-59
	android:name
		ADDED from D:\kaiyuanyanjiu\HugeMountain\app\src\main\AndroidManifest.xml:254:13-53
activity#com.aozhi.hugemountain.activity.AccountActivity
ADDED from D:\kaiyuanyanjiu\HugeMountain\app\src\main\AndroidManifest.xml:258:9-262:20
	android:screenOrientation
		ADDED from D:\kaiyuanyanjiu\HugeMountain\app\src\main\AndroidManifest.xml:261:13-49
	android:label
		ADDED from D:\kaiyuanyanjiu\HugeMountain\app\src\main\AndroidManifest.xml:260:13-59
	android:name
		ADDED from D:\kaiyuanyanjiu\HugeMountain\app\src\main\AndroidManifest.xml:259:13-53
activity#com.aozhi.hugemountain.activity.BNDemoGuideActivity
ADDED from D:\kaiyuanyanjiu\HugeMountain\app\src\main\AndroidManifest.xml:263:9-266:20
	android:configChanges
		ADDED from D:\kaiyuanyanjiu\HugeMountain\app\src\main\AndroidManifest.xml:265:13-83
	android:name
		ADDED from D:\kaiyuanyanjiu\HugeMountain\app\src\main\AndroidManifest.xml:264:13-57
activity#com.aozhi.hugemountain.activity.LocationsActivity
ADDED from D:\kaiyuanyanjiu\HugeMountain\app\src\main\AndroidManifest.xml:267:9-271:20
	android:screenOrientation
		ADDED from D:\kaiyuanyanjiu\HugeMountain\app\src\main\AndroidManifest.xml:270:13-49
	android:label
		ADDED from D:\kaiyuanyanjiu\HugeMountain\app\src\main\AndroidManifest.xml:269:13-59
	android:name
		ADDED from D:\kaiyuanyanjiu\HugeMountain\app\src\main\AndroidManifest.xml:268:13-55
activity#com.aozhi.hugemountain.activity.AboutActivity
ADDED from D:\kaiyuanyanjiu\HugeMountain\app\src\main\AndroidManifest.xml:272:9-276:20
	android:screenOrientation
		ADDED from D:\kaiyuanyanjiu\HugeMountain\app\src\main\AndroidManifest.xml:275:13-49
	android:label
		ADDED from D:\kaiyuanyanjiu\HugeMountain\app\src\main\AndroidManifest.xml:274:13-59
	android:name
		ADDED from D:\kaiyuanyanjiu\HugeMountain\app\src\main\AndroidManifest.xml:273:13-51
activity#com.aozhi.hugemountain.activity.VipCenterActivity
ADDED from D:\kaiyuanyanjiu\HugeMountain\app\src\main\AndroidManifest.xml:277:9-281:20
	android:screenOrientation
		ADDED from D:\kaiyuanyanjiu\HugeMountain\app\src\main\AndroidManifest.xml:280:13-49
	android:label
		ADDED from D:\kaiyuanyanjiu\HugeMountain\app\src\main\AndroidManifest.xml:279:13-59
	android:name
		ADDED from D:\kaiyuanyanjiu\HugeMountain\app\src\main\AndroidManifest.xml:278:13-55
activity#com.aozhi.hugemountain.activity.OrderStaffActivity
ADDED from D:\kaiyuanyanjiu\HugeMountain\app\src\main\AndroidManifest.xml:282:9-286:20
	android:screenOrientation
		ADDED from D:\kaiyuanyanjiu\HugeMountain\app\src\main\AndroidManifest.xml:285:13-49
	android:label
		ADDED from D:\kaiyuanyanjiu\HugeMountain\app\src\main\AndroidManifest.xml:284:13-57
	android:name
		ADDED from D:\kaiyuanyanjiu\HugeMountain\app\src\main\AndroidManifest.xml:283:13-56
activity#com.aozhi.hugemountain.activity.MainActivity
ADDED from D:\kaiyuanyanjiu\HugeMountain\app\src\main\AndroidManifest.xml:287:9-291:20
	android:screenOrientation
		ADDED from D:\kaiyuanyanjiu\HugeMountain\app\src\main\AndroidManifest.xml:290:13-49
	android:label
		ADDED from D:\kaiyuanyanjiu\HugeMountain\app\src\main\AndroidManifest.xml:289:13-33
	android:name
		ADDED from D:\kaiyuanyanjiu\HugeMountain\app\src\main\AndroidManifest.xml:288:13-50
activity#com.aozhi.hugemountain.activity.Addcard
ADDED from D:\kaiyuanyanjiu\HugeMountain\app\src\main\AndroidManifest.xml:292:9-296:20
	android:screenOrientation
		ADDED from D:\kaiyuanyanjiu\HugeMountain\app\src\main\AndroidManifest.xml:295:13-49
	android:label
		ADDED from D:\kaiyuanyanjiu\HugeMountain\app\src\main\AndroidManifest.xml:294:13-33
	android:name
		ADDED from D:\kaiyuanyanjiu\HugeMountain\app\src\main\AndroidManifest.xml:293:13-45
activity#com.aozhi.hugemountain.activity.AddNet
ADDED from D:\kaiyuanyanjiu\HugeMountain\app\src\main\AndroidManifest.xml:297:9-298:20
	android:name
		ADDED from D:\kaiyuanyanjiu\HugeMountain\app\src\main\AndroidManifest.xml:297:19-50
activity#com.aozhi.hugemountain.activity.UserSettingActivity
ADDED from D:\kaiyuanyanjiu\HugeMountain\app\src\main\AndroidManifest.xml:299:9-303:20
	android:screenOrientation
		ADDED from D:\kaiyuanyanjiu\HugeMountain\app\src\main\AndroidManifest.xml:302:13-49
	android:label
		ADDED from D:\kaiyuanyanjiu\HugeMountain\app\src\main\AndroidManifest.xml:301:13-33
	android:name
		ADDED from D:\kaiyuanyanjiu\HugeMountain\app\src\main\AndroidManifest.xml:300:13-57
activity#com.aozhi.hugemountain.activity.RegistActivity
ADDED from D:\kaiyuanyanjiu\HugeMountain\app\src\main\AndroidManifest.xml:304:9-308:20
	android:screenOrientation
		ADDED from D:\kaiyuanyanjiu\HugeMountain\app\src\main\AndroidManifest.xml:307:13-49
	android:label
		ADDED from D:\kaiyuanyanjiu\HugeMountain\app\src\main\AndroidManifest.xml:306:13-58
	android:name
		ADDED from D:\kaiyuanyanjiu\HugeMountain\app\src\main\AndroidManifest.xml:305:13-52
activity#com.aozhi.hugemountain.activity.NavigationActivity
ADDED from D:\kaiyuanyanjiu\HugeMountain\app\src\main\AndroidManifest.xml:309:9-313:20
	android:screenOrientation
		ADDED from D:\kaiyuanyanjiu\HugeMountain\app\src\main\AndroidManifest.xml:312:13-49
	android:label
		ADDED from D:\kaiyuanyanjiu\HugeMountain\app\src\main\AndroidManifest.xml:311:13-62
	android:name
		ADDED from D:\kaiyuanyanjiu\HugeMountain\app\src\main\AndroidManifest.xml:310:13-56
activity#com.aozhi.hugemountain.activity.TixianRecordActivity
ADDED from D:\kaiyuanyanjiu\HugeMountain\app\src\main\AndroidManifest.xml:314:9-67
	android:name
		ADDED from D:\kaiyuanyanjiu\HugeMountain\app\src\main\AndroidManifest.xml:314:19-64
activity#com.aozhi.hugemountain.activity.MapDisplayActivity
ADDED from D:\kaiyuanyanjiu\HugeMountain\app\src\main\AndroidManifest.xml:315:9-319:20
	android:screenOrientation
		ADDED from D:\kaiyuanyanjiu\HugeMountain\app\src\main\AndroidManifest.xml:318:13-49
	android:label
		ADDED from D:\kaiyuanyanjiu\HugeMountain\app\src\main\AndroidManifest.xml:317:13-63
	android:name
		ADDED from D:\kaiyuanyanjiu\HugeMountain\app\src\main\AndroidManifest.xml:316:13-56
activity#com.aozhi.hugemountain.activity.StoreListActivity
ADDED from D:\kaiyuanyanjiu\HugeMountain\app\src\main\AndroidManifest.xml:320:9-324:20
	android:screenOrientation
		ADDED from D:\kaiyuanyanjiu\HugeMountain\app\src\main\AndroidManifest.xml:323:13-49
	android:label
		ADDED from D:\kaiyuanyanjiu\HugeMountain\app\src\main\AndroidManifest.xml:322:13-62
	android:name
		ADDED from D:\kaiyuanyanjiu\HugeMountain\app\src\main\AndroidManifest.xml:321:13-55
activity#com.aozhi.hugemountain.BusinessActivity
ADDED from D:\kaiyuanyanjiu\HugeMountain\app\src\main\AndroidManifest.xml:325:9-329:20
	android:screenOrientation
		ADDED from D:\kaiyuanyanjiu\HugeMountain\app\src\main\AndroidManifest.xml:328:13-49
	android:label
		ADDED from D:\kaiyuanyanjiu\HugeMountain\app\src\main\AndroidManifest.xml:327:13-60
	android:name
		ADDED from D:\kaiyuanyanjiu\HugeMountain\app\src\main\AndroidManifest.xml:326:13-45
activity#com.aozhi.hugemountain.activity.MyInviteActivity
ADDED from D:\kaiyuanyanjiu\HugeMountain\app\src\main\AndroidManifest.xml:330:9-334:20
	android:screenOrientation
		ADDED from D:\kaiyuanyanjiu\HugeMountain\app\src\main\AndroidManifest.xml:333:13-49
	android:label
		ADDED from D:\kaiyuanyanjiu\HugeMountain\app\src\main\AndroidManifest.xml:332:13-61
	android:name
		ADDED from D:\kaiyuanyanjiu\HugeMountain\app\src\main\AndroidManifest.xml:331:13-54
activity#com.aozhi.hugemountain.PreordainActivity
ADDED from D:\kaiyuanyanjiu\HugeMountain\app\src\main\AndroidManifest.xml:335:9-339:20
	android:screenOrientation
		ADDED from D:\kaiyuanyanjiu\HugeMountain\app\src\main\AndroidManifest.xml:338:13-49
	android:label
		ADDED from D:\kaiyuanyanjiu\HugeMountain\app\src\main\AndroidManifest.xml:337:13-61
	android:name
		ADDED from D:\kaiyuanyanjiu\HugeMountain\app\src\main\AndroidManifest.xml:336:13-68
activity#com.aozhi.hugemountain.activity.MyCollectActivity
ADDED from D:\kaiyuanyanjiu\HugeMountain\app\src\main\AndroidManifest.xml:340:9-344:20
	android:screenOrientation
		ADDED from D:\kaiyuanyanjiu\HugeMountain\app\src\main\AndroidManifest.xml:343:13-49
	android:label
		ADDED from D:\kaiyuanyanjiu\HugeMountain\app\src\main\AndroidManifest.xml:342:13-62
	android:name
		ADDED from D:\kaiyuanyanjiu\HugeMountain\app\src\main\AndroidManifest.xml:341:13-55
activity#com.aozhi.hugemountain.activity.ConsumerBillActivity
ADDED from D:\kaiyuanyanjiu\HugeMountain\app\src\main\AndroidManifest.xml:345:9-349:20
	android:screenOrientation
		ADDED from D:\kaiyuanyanjiu\HugeMountain\app\src\main\AndroidManifest.xml:348:13-49
	android:label
		ADDED from D:\kaiyuanyanjiu\HugeMountain\app\src\main\AndroidManifest.xml:347:13-65
	android:name
		ADDED from D:\kaiyuanyanjiu\HugeMountain\app\src\main\AndroidManifest.xml:346:13-58
activity#com.aozhi.hugemountain.activity.FindPwd1Activity
ADDED from D:\kaiyuanyanjiu\HugeMountain\app\src\main\AndroidManifest.xml:350:9-354:20
	android:screenOrientation
		ADDED from D:\kaiyuanyanjiu\HugeMountain\app\src\main\AndroidManifest.xml:353:13-49
	android:label
		ADDED from D:\kaiyuanyanjiu\HugeMountain\app\src\main\AndroidManifest.xml:352:13-61
	android:name
		ADDED from D:\kaiyuanyanjiu\HugeMountain\app\src\main\AndroidManifest.xml:351:13-54
activity#com.aozhi.hugemountain.activity.OrderClientActivity
ADDED from D:\kaiyuanyanjiu\HugeMountain\app\src\main\AndroidManifest.xml:355:9-358:20
	android:screenOrientation
		ADDED from D:\kaiyuanyanjiu\HugeMountain\app\src\main\AndroidManifest.xml:357:13-49
	android:name
		ADDED from D:\kaiyuanyanjiu\HugeMountain\app\src\main\AndroidManifest.xml:356:13-57
activity#com.aozhi.hugemountain.activity.VipAddActivity
ADDED from D:\kaiyuanyanjiu\HugeMountain\app\src\main\AndroidManifest.xml:359:9-362:20
	android:screenOrientation
		ADDED from D:\kaiyuanyanjiu\HugeMountain\app\src\main\AndroidManifest.xml:361:13-49
	android:name
		ADDED from D:\kaiyuanyanjiu\HugeMountain\app\src\main\AndroidManifest.xml:360:13-52
activity#com.aozhi.hugemountain.activity.MainClientActivity
ADDED from D:\kaiyuanyanjiu\HugeMountain\app\src\main\AndroidManifest.xml:363:9-366:20
	android:screenOrientation
		ADDED from D:\kaiyuanyanjiu\HugeMountain\app\src\main\AndroidManifest.xml:365:13-49
	android:name
		ADDED from D:\kaiyuanyanjiu\HugeMountain\app\src\main\AndroidManifest.xml:364:13-56
activity#com.aozhi.hugemountain.activity.CashRecordActivity
ADDED from D:\kaiyuanyanjiu\HugeMountain\app\src\main\AndroidManifest.xml:367:9-370:20
	android:screenOrientation
		ADDED from D:\kaiyuanyanjiu\HugeMountain\app\src\main\AndroidManifest.xml:369:13-49
	android:name
		ADDED from D:\kaiyuanyanjiu\HugeMountain\app\src\main\AndroidManifest.xml:368:13-56
activity#com.aozhi.hugemountain.RoomDetails
ADDED from D:\kaiyuanyanjiu\HugeMountain\app\src\main\AndroidManifest.xml:371:9-374:20
	android:screenOrientation
		ADDED from D:\kaiyuanyanjiu\HugeMountain\app\src\main\AndroidManifest.xml:373:13-49
	android:name
		ADDED from D:\kaiyuanyanjiu\HugeMountain\app\src\main\AndroidManifest.xml:372:13-62
activity#com.aozhi.hugemountain.activity.EditStaffActivity
ADDED from D:\kaiyuanyanjiu\HugeMountain\app\src\main\AndroidManifest.xml:375:9-378:20
	android:screenOrientation
		ADDED from D:\kaiyuanyanjiu\HugeMountain\app\src\main\AndroidManifest.xml:377:13-49
	android:name
		ADDED from D:\kaiyuanyanjiu\HugeMountain\app\src\main\AndroidManifest.xml:376:13-55
activity#com.aozhi.hugemountain.activity.VipReChargeActivity
ADDED from D:\kaiyuanyanjiu\HugeMountain\app\src\main\AndroidManifest.xml:379:9-382:20
	android:screenOrientation
		ADDED from D:\kaiyuanyanjiu\HugeMountain\app\src\main\AndroidManifest.xml:381:13-49
	android:name
		ADDED from D:\kaiyuanyanjiu\HugeMountain\app\src\main\AndroidManifest.xml:380:13-57
activity#com.aozhi.hugemountain.activity.FindPwd2Activity
ADDED from D:\kaiyuanyanjiu\HugeMountain\app\src\main\AndroidManifest.xml:383:9-387:20
	android:screenOrientation
		ADDED from D:\kaiyuanyanjiu\HugeMountain\app\src\main\AndroidManifest.xml:386:13-49
	android:label
		ADDED from D:\kaiyuanyanjiu\HugeMountain\app\src\main\AndroidManifest.xml:385:13-61
	android:name
		ADDED from D:\kaiyuanyanjiu\HugeMountain\app\src\main\AndroidManifest.xml:384:13-54
activity#com.aozhi.hugemountain.activity.FindPwd3Activity
ADDED from D:\kaiyuanyanjiu\HugeMountain\app\src\main\AndroidManifest.xml:388:9-392:20
	android:screenOrientation
		ADDED from D:\kaiyuanyanjiu\HugeMountain\app\src\main\AndroidManifest.xml:391:13-49
	android:label
		ADDED from D:\kaiyuanyanjiu\HugeMountain\app\src\main\AndroidManifest.xml:390:13-61
	android:name
		ADDED from D:\kaiyuanyanjiu\HugeMountain\app\src\main\AndroidManifest.xml:389:13-54
activity#com.aozhi.hugemountain.activity.LoginStoreActivity
ADDED from D:\kaiyuanyanjiu\HugeMountain\app\src\main\AndroidManifest.xml:393:9-397:20
	android:screenOrientation
		ADDED from D:\kaiyuanyanjiu\HugeMountain\app\src\main\AndroidManifest.xml:396:13-49
	android:label
		ADDED from D:\kaiyuanyanjiu\HugeMountain\app\src\main\AndroidManifest.xml:395:13-63
	android:name
		ADDED from D:\kaiyuanyanjiu\HugeMountain\app\src\main\AndroidManifest.xml:394:13-56
activity#com.aozhi.hugemountain.activity.LoginStaffActivity
ADDED from D:\kaiyuanyanjiu\HugeMountain\app\src\main\AndroidManifest.xml:398:9-402:20
	android:screenOrientation
		ADDED from D:\kaiyuanyanjiu\HugeMountain\app\src\main\AndroidManifest.xml:401:13-49
	android:label
		ADDED from D:\kaiyuanyanjiu\HugeMountain\app\src\main\AndroidManifest.xml:400:13-63
	android:name
		ADDED from D:\kaiyuanyanjiu\HugeMountain\app\src\main\AndroidManifest.xml:399:13-56
activity#com.aozhi.hugemountain.activity.MainStaffActivity
ADDED from D:\kaiyuanyanjiu\HugeMountain\app\src\main\AndroidManifest.xml:403:9-407:20
	android:screenOrientation
		ADDED from D:\kaiyuanyanjiu\HugeMountain\app\src\main\AndroidManifest.xml:406:13-49
	android:label
		ADDED from D:\kaiyuanyanjiu\HugeMountain\app\src\main\AndroidManifest.xml:405:13-62
	android:name
		ADDED from D:\kaiyuanyanjiu\HugeMountain\app\src\main\AndroidManifest.xml:404:13-55
activity#com.aozhi.hugemountain.activity.HomeStaffActivity
ADDED from D:\kaiyuanyanjiu\HugeMountain\app\src\main\AndroidManifest.xml:408:9-412:20
	android:screenOrientation
		ADDED from D:\kaiyuanyanjiu\HugeMountain\app\src\main\AndroidManifest.xml:411:13-49
	android:label
		ADDED from D:\kaiyuanyanjiu\HugeMountain\app\src\main\AndroidManifest.xml:410:13-62
	android:name
		ADDED from D:\kaiyuanyanjiu\HugeMountain\app\src\main\AndroidManifest.xml:409:13-55
activity#com.aozhi.hugemountain.PersonalStaffActivity
ADDED from D:\kaiyuanyanjiu\HugeMountain\app\src\main\AndroidManifest.xml:413:9-417:20
	android:screenOrientation
		ADDED from D:\kaiyuanyanjiu\HugeMountain\app\src\main\AndroidManifest.xml:416:13-49
	android:label
		ADDED from D:\kaiyuanyanjiu\HugeMountain\app\src\main\AndroidManifest.xml:415:13-65
	android:name
		ADDED from D:\kaiyuanyanjiu\HugeMountain\app\src\main\AndroidManifest.xml:414:13-50
activity#com.aozhi.hugemountain.SettingStaffActivity
ADDED from D:\kaiyuanyanjiu\HugeMountain\app\src\main\AndroidManifest.xml:418:9-422:20
	android:screenOrientation
		ADDED from D:\kaiyuanyanjiu\HugeMountain\app\src\main\AndroidManifest.xml:421:13-49
	android:label
		ADDED from D:\kaiyuanyanjiu\HugeMountain\app\src\main\AndroidManifest.xml:420:13-65
	android:name
		ADDED from D:\kaiyuanyanjiu\HugeMountain\app\src\main\AndroidManifest.xml:419:13-71
activity#com.aozhi.hugemountain.activity.PKHubActivity
ADDED from D:\kaiyuanyanjiu\HugeMountain\app\src\main\AndroidManifest.xml:423:9-427:20
	android:screenOrientation
		ADDED from D:\kaiyuanyanjiu\HugeMountain\app\src\main\AndroidManifest.xml:426:13-49
	android:label
		ADDED from D:\kaiyuanyanjiu\HugeMountain\app\src\main\AndroidManifest.xml:425:13-57
	android:name
		ADDED from D:\kaiyuanyanjiu\HugeMountain\app\src\main\AndroidManifest.xml:424:13-51
activity#com.aozhi.hugemountain.activity.MonthBonusActivity
ADDED from D:\kaiyuanyanjiu\HugeMountain\app\src\main\AndroidManifest.xml:428:9-432:20
	android:screenOrientation
		ADDED from D:\kaiyuanyanjiu\HugeMountain\app\src\main\AndroidManifest.xml:431:13-49
	android:label
		ADDED from D:\kaiyuanyanjiu\HugeMountain\app\src\main\AndroidManifest.xml:430:13-57
	android:name
		ADDED from D:\kaiyuanyanjiu\HugeMountain\app\src\main\AndroidManifest.xml:429:13-56
activity#com.aozhi.hugemountain.activity.ServicesActivity
ADDED from D:\kaiyuanyanjiu\HugeMountain\app\src\main\AndroidManifest.xml:433:9-437:20
	android:screenOrientation
		ADDED from D:\kaiyuanyanjiu\HugeMountain\app\src\main\AndroidManifest.xml:436:13-49
	android:label
		ADDED from D:\kaiyuanyanjiu\HugeMountain\app\src\main\AndroidManifest.xml:435:13-60
	android:name
		ADDED from D:\kaiyuanyanjiu\HugeMountain\app\src\main\AndroidManifest.xml:434:13-54
activity#com.aozhi.hugemountain.activity.HistoryBonusActivity
ADDED from D:\kaiyuanyanjiu\HugeMountain\app\src\main\AndroidManifest.xml:438:9-441:20
	android:label
		ADDED from D:\kaiyuanyanjiu\HugeMountain\app\src\main\AndroidManifest.xml:440:13-65
	android:name
		ADDED from D:\kaiyuanyanjiu\HugeMountain\app\src\main\AndroidManifest.xml:439:13-58
activity#com.aozhi.hugemountain.activity.RegistrationActivity
ADDED from D:\kaiyuanyanjiu\HugeMountain\app\src\main\AndroidManifest.xml:442:9-446:20
	android:screenOrientation
		ADDED from D:\kaiyuanyanjiu\HugeMountain\app\src\main\AndroidManifest.xml:445:13-49
	android:label
		ADDED from D:\kaiyuanyanjiu\HugeMountain\app\src\main\AndroidManifest.xml:444:13-64
	android:name
		ADDED from D:\kaiyuanyanjiu\HugeMountain\app\src\main\AndroidManifest.xml:443:13-58
activity#com.aozhi.hugemountain.activity.OfficeActivity
ADDED from D:\kaiyuanyanjiu\HugeMountain\app\src\main\AndroidManifest.xml:447:9-451:20
	android:screenOrientation
		ADDED from D:\kaiyuanyanjiu\HugeMountain\app\src\main\AndroidManifest.xml:450:13-49
	android:label
		ADDED from D:\kaiyuanyanjiu\HugeMountain\app\src\main\AndroidManifest.xml:449:13-58
	android:name
		ADDED from D:\kaiyuanyanjiu\HugeMountain\app\src\main\AndroidManifest.xml:448:13-52
activity#com.aozhi.hugemountain.activity.WithdrawalsActivity
ADDED from D:\kaiyuanyanjiu\HugeMountain\app\src\main\AndroidManifest.xml:452:9-456:20
	android:screenOrientation
		ADDED from D:\kaiyuanyanjiu\HugeMountain\app\src\main\AndroidManifest.xml:455:13-49
	android:label
		ADDED from D:\kaiyuanyanjiu\HugeMountain\app\src\main\AndroidManifest.xml:454:13-63
	android:name
		ADDED from D:\kaiyuanyanjiu\HugeMountain\app\src\main\AndroidManifest.xml:453:13-57
activity#com.aozhi.hugemountain.activity.ShowActivity
ADDED from D:\kaiyuanyanjiu\HugeMountain\app\src\main\AndroidManifest.xml:457:9-461:20
	android:screenOrientation
		ADDED from D:\kaiyuanyanjiu\HugeMountain\app\src\main\AndroidManifest.xml:460:13-49
	android:label
		ADDED from D:\kaiyuanyanjiu\HugeMountain\app\src\main\AndroidManifest.xml:459:13-56
	android:name
		ADDED from D:\kaiyuanyanjiu\HugeMountain\app\src\main\AndroidManifest.xml:458:13-50
activity#com.aozhi.hugemountain.MainStoreActivity
ADDED from D:\kaiyuanyanjiu\HugeMountain\app\src\main\AndroidManifest.xml:462:9-466:20
	android:screenOrientation
		ADDED from D:\kaiyuanyanjiu\HugeMountain\app\src\main\AndroidManifest.xml:465:13-49
	android:label
		ADDED from D:\kaiyuanyanjiu\HugeMountain\app\src\main\AndroidManifest.xml:464:13-62
	android:name
		ADDED from D:\kaiyuanyanjiu\HugeMountain\app\src\main\AndroidManifest.xml:463:13-68
activity#com.aozhi.hugemountain.activity.FindPwdStore1Activity
ADDED from D:\kaiyuanyanjiu\HugeMountain\app\src\main\AndroidManifest.xml:467:9-471:20
	android:screenOrientation
		ADDED from D:\kaiyuanyanjiu\HugeMountain\app\src\main\AndroidManifest.xml:470:13-49
	android:label
		ADDED from D:\kaiyuanyanjiu\HugeMountain\app\src\main\AndroidManifest.xml:469:13-67
	android:name
		ADDED from D:\kaiyuanyanjiu\HugeMountain\app\src\main\AndroidManifest.xml:468:13-59
activity#com.aozhi.hugemountain.activity.FindPwdStore2Activity
ADDED from D:\kaiyuanyanjiu\HugeMountain\app\src\main\AndroidManifest.xml:472:9-476:20
	android:screenOrientation
		ADDED from D:\kaiyuanyanjiu\HugeMountain\app\src\main\AndroidManifest.xml:475:13-49
	android:label
		ADDED from D:\kaiyuanyanjiu\HugeMountain\app\src\main\AndroidManifest.xml:474:13-67
	android:name
		ADDED from D:\kaiyuanyanjiu\HugeMountain\app\src\main\AndroidManifest.xml:473:13-59
activity#com.aozhi.hugemountain.activity.FindPwdStore3Activity
ADDED from D:\kaiyuanyanjiu\HugeMountain\app\src\main\AndroidManifest.xml:477:9-481:20
	android:screenOrientation
		ADDED from D:\kaiyuanyanjiu\HugeMountain\app\src\main\AndroidManifest.xml:480:13-49
	android:label
		ADDED from D:\kaiyuanyanjiu\HugeMountain\app\src\main\AndroidManifest.xml:479:13-67
	android:name
		ADDED from D:\kaiyuanyanjiu\HugeMountain\app\src\main\AndroidManifest.xml:478:13-59
activity#com.aozhi.hugemountain.activity.HomeStoreActivity
ADDED from D:\kaiyuanyanjiu\HugeMountain\app\src\main\AndroidManifest.xml:482:9-486:20
	android:screenOrientation
		ADDED from D:\kaiyuanyanjiu\HugeMountain\app\src\main\AndroidManifest.xml:485:13-49
	android:label
		ADDED from D:\kaiyuanyanjiu\HugeMountain\app\src\main\AndroidManifest.xml:484:13-62
	android:name
		ADDED from D:\kaiyuanyanjiu\HugeMountain\app\src\main\AndroidManifest.xml:483:13-55
activity#com.aozhi.hugemountain.activity.ProjectActivity
ADDED from D:\kaiyuanyanjiu\HugeMountain\app\src\main\AndroidManifest.xml:487:9-491:20
	android:screenOrientation
		ADDED from D:\kaiyuanyanjiu\HugeMountain\app\src\main\AndroidManifest.xml:490:13-49
	android:label
		ADDED from D:\kaiyuanyanjiu\HugeMountain\app\src\main\AndroidManifest.xml:489:13-59
	android:name
		ADDED from D:\kaiyuanyanjiu\HugeMountain\app\src\main\AndroidManifest.xml:488:13-53
activity#com.aozhi.hugemountain.activity.StaffOrdersActivity
ADDED from D:\kaiyuanyanjiu\HugeMountain\app\src\main\AndroidManifest.xml:492:9-496:20
	android:screenOrientation
		ADDED from D:\kaiyuanyanjiu\HugeMountain\app\src\main\AndroidManifest.xml:495:13-49
	android:label
		ADDED from D:\kaiyuanyanjiu\HugeMountain\app\src\main\AndroidManifest.xml:494:13-59
	android:name
		ADDED from D:\kaiyuanyanjiu\HugeMountain\app\src\main\AndroidManifest.xml:493:13-57
activity#com.aozhi.hugemountain.activity.ManagementStaffActivity
ADDED from D:\kaiyuanyanjiu\HugeMountain\app\src\main\AndroidManifest.xml:497:9-501:20
	android:screenOrientation
		ADDED from D:\kaiyuanyanjiu\HugeMountain\app\src\main\AndroidManifest.xml:500:13-49
	android:label
		ADDED from D:\kaiyuanyanjiu\HugeMountain\app\src\main\AndroidManifest.xml:499:13-68
	android:name
		ADDED from D:\kaiyuanyanjiu\HugeMountain\app\src\main\AndroidManifest.xml:498:13-61
activity#com.aozhi.hugemountain.RoomManagementActivity
ADDED from D:\kaiyuanyanjiu\HugeMountain\app\src\main\AndroidManifest.xml:502:9-506:20
	android:screenOrientation
		ADDED from D:\kaiyuanyanjiu\HugeMountain\app\src\main\AndroidManifest.xml:505:13-49
	android:label
		ADDED from D:\kaiyuanyanjiu\HugeMountain\app\src\main\AndroidManifest.xml:504:13-67
	android:name
		ADDED from D:\kaiyuanyanjiu\HugeMountain\app\src\main\AndroidManifest.xml:503:13-51
activity#com.aozhi.hugemountain.activity.ShopCenterActivity
ADDED from D:\kaiyuanyanjiu\HugeMountain\app\src\main\AndroidManifest.xml:507:9-511:20
	android:screenOrientation
		ADDED from D:\kaiyuanyanjiu\HugeMountain\app\src\main\AndroidManifest.xml:510:13-49
	android:label
		ADDED from D:\kaiyuanyanjiu\HugeMountain\app\src\main\AndroidManifest.xml:509:13-63
	android:name
		ADDED from D:\kaiyuanyanjiu\HugeMountain\app\src\main\AndroidManifest.xml:508:13-56
activity#com.aozhi.hugemountain.activity.CollectActivity
ADDED from D:\kaiyuanyanjiu\HugeMountain\app\src\main\AndroidManifest.xml:512:9-516:20
	android:screenOrientation
		ADDED from D:\kaiyuanyanjiu\HugeMountain\app\src\main\AndroidManifest.xml:515:13-49
	android:label
		ADDED from D:\kaiyuanyanjiu\HugeMountain\app\src\main\AndroidManifest.xml:514:13-60
	android:name
		ADDED from D:\kaiyuanyanjiu\HugeMountain\app\src\main\AndroidManifest.xml:513:13-53
activity#com.aozhi.hugemountain.activity.OrderFormActivity
ADDED from D:\kaiyuanyanjiu\HugeMountain\app\src\main\AndroidManifest.xml:517:9-521:20
	android:screenOrientation
		ADDED from D:\kaiyuanyanjiu\HugeMountain\app\src\main\AndroidManifest.xml:520:13-49
	android:label
		ADDED from D:\kaiyuanyanjiu\HugeMountain\app\src\main\AndroidManifest.xml:519:13-62
	android:name
		ADDED from D:\kaiyuanyanjiu\HugeMountain\app\src\main\AndroidManifest.xml:518:13-55
activity#com.aozhi.hugemountain.activity.OrderFormDetailStoreActivity
ADDED from D:\kaiyuanyanjiu\HugeMountain\app\src\main\AndroidManifest.xml:522:9-526:20
	android:screenOrientation
		ADDED from D:\kaiyuanyanjiu\HugeMountain\app\src\main\AndroidManifest.xml:525:13-49
	android:label
		ADDED from D:\kaiyuanyanjiu\HugeMountain\app\src\main\AndroidManifest.xml:524:13-69
	android:name
		ADDED from D:\kaiyuanyanjiu\HugeMountain\app\src\main\AndroidManifest.xml:523:13-66
activity#com.aozhi.hugemountain.activity.RevenueInquiryActivity
ADDED from D:\kaiyuanyanjiu\HugeMountain\app\src\main\AndroidManifest.xml:527:9-531:20
	android:screenOrientation
		ADDED from D:\kaiyuanyanjiu\HugeMountain\app\src\main\AndroidManifest.xml:530:13-49
	android:label
		ADDED from D:\kaiyuanyanjiu\HugeMountain\app\src\main\AndroidManifest.xml:529:13-67
	android:name
		ADDED from D:\kaiyuanyanjiu\HugeMountain\app\src\main\AndroidManifest.xml:528:13-60
activity#com.aozhi.hugemountain.activity.ExpenditureInquiryActivity
ADDED from D:\kaiyuanyanjiu\HugeMountain\app\src\main\AndroidManifest.xml:532:9-536:20
	android:screenOrientation
		ADDED from D:\kaiyuanyanjiu\HugeMountain\app\src\main\AndroidManifest.xml:535:13-49
	android:label
		ADDED from D:\kaiyuanyanjiu\HugeMountain\app\src\main\AndroidManifest.xml:534:13-71
	android:name
		ADDED from D:\kaiyuanyanjiu\HugeMountain\app\src\main\AndroidManifest.xml:533:13-64
activity#com.aozhi.hugemountain.activity.AddStaffActivity
ADDED from D:\kaiyuanyanjiu\HugeMountain\app\src\main\AndroidManifest.xml:537:9-541:20
	android:screenOrientation
		ADDED from D:\kaiyuanyanjiu\HugeMountain\app\src\main\AndroidManifest.xml:540:13-49
	android:label
		ADDED from D:\kaiyuanyanjiu\HugeMountain\app\src\main\AndroidManifest.xml:539:13-61
	android:name
		ADDED from D:\kaiyuanyanjiu\HugeMountain\app\src\main\AndroidManifest.xml:538:13-54
activity#com.aozhi.hugemountain.activity.UpdateStaffActivity
ADDED from D:\kaiyuanyanjiu\HugeMountain\app\src\main\AndroidManifest.xml:542:9-546:20
	android:screenOrientation
		ADDED from D:\kaiyuanyanjiu\HugeMountain\app\src\main\AndroidManifest.xml:545:13-49
	android:label
		ADDED from D:\kaiyuanyanjiu\HugeMountain\app\src\main\AndroidManifest.xml:544:13-64
	android:name
		ADDED from D:\kaiyuanyanjiu\HugeMountain\app\src\main\AndroidManifest.xml:543:13-57
activity#com.aozhi.hugemountain.activity.ViewStaffActivity
ADDED from D:\kaiyuanyanjiu\HugeMountain\app\src\main\AndroidManifest.xml:547:9-551:20
	android:screenOrientation
		ADDED from D:\kaiyuanyanjiu\HugeMountain\app\src\main\AndroidManifest.xml:550:13-49
	android:label
		ADDED from D:\kaiyuanyanjiu\HugeMountain\app\src\main\AndroidManifest.xml:549:13-62
	android:name
		ADDED from D:\kaiyuanyanjiu\HugeMountain\app\src\main\AndroidManifest.xml:548:13-55
activity#com.aozhi.hugemountain.activity.ProjectReleasesActivity
ADDED from D:\kaiyuanyanjiu\HugeMountain\app\src\main\AndroidManifest.xml:552:9-556:20
	android:screenOrientation
		ADDED from D:\kaiyuanyanjiu\HugeMountain\app\src\main\AndroidManifest.xml:555:13-49
	android:label
		ADDED from D:\kaiyuanyanjiu\HugeMountain\app\src\main\AndroidManifest.xml:554:13-68
	android:name
		ADDED from D:\kaiyuanyanjiu\HugeMountain\app\src\main\AndroidManifest.xml:553:13-61
activity#com.aozhi.hugemountain.activity.ProjectDetailsActivity
ADDED from D:\kaiyuanyanjiu\HugeMountain\app\src\main\AndroidManifest.xml:557:9-561:20
	android:screenOrientation
		ADDED from D:\kaiyuanyanjiu\HugeMountain\app\src\main\AndroidManifest.xml:560:13-49
	android:label
		ADDED from D:\kaiyuanyanjiu\HugeMountain\app\src\main\AndroidManifest.xml:559:13-67
	android:name
		ADDED from D:\kaiyuanyanjiu\HugeMountain\app\src\main\AndroidManifest.xml:558:13-60
activity#com.aozhi.hugemountain.activity.RegiststoreActivity
ADDED from D:\kaiyuanyanjiu\HugeMountain\app\src\main\AndroidManifest.xml:562:9-566:20
	android:screenOrientation
		ADDED from D:\kaiyuanyanjiu\HugeMountain\app\src\main\AndroidManifest.xml:565:13-49
	android:label
		ADDED from D:\kaiyuanyanjiu\HugeMountain\app\src\main\AndroidManifest.xml:564:13-63
	android:name
		ADDED from D:\kaiyuanyanjiu\HugeMountain\app\src\main\AndroidManifest.xml:563:13-57
activity#com.aozhi.hugemountain.activity.ServiceDetaileActivity
ADDED from D:\kaiyuanyanjiu\HugeMountain\app\src\main\AndroidManifest.xml:567:9-571:20
	android:screenOrientation
		ADDED from D:\kaiyuanyanjiu\HugeMountain\app\src\main\AndroidManifest.xml:570:13-49
	android:label
		ADDED from D:\kaiyuanyanjiu\HugeMountain\app\src\main\AndroidManifest.xml:569:13-67
	android:name
		ADDED from D:\kaiyuanyanjiu\HugeMountain\app\src\main\AndroidManifest.xml:568:13-60
activity#com.aozhi.hugemountain.activity.StaffDetailActivity
ADDED from D:\kaiyuanyanjiu\HugeMountain\app\src\main\AndroidManifest.xml:572:9-576:20
	android:screenOrientation
		ADDED from D:\kaiyuanyanjiu\HugeMountain\app\src\main\AndroidManifest.xml:575:13-49
	android:label
		ADDED from D:\kaiyuanyanjiu\HugeMountain\app\src\main\AndroidManifest.xml:574:13-64
	android:name
		ADDED from D:\kaiyuanyanjiu\HugeMountain\app\src\main\AndroidManifest.xml:573:13-57
activity#com.aozhi.hugemountain.activity.OrderFormDetailClientActivity
ADDED from D:\kaiyuanyanjiu\HugeMountain\app\src\main\AndroidManifest.xml:577:9-581:20
	android:screenOrientation
		ADDED from D:\kaiyuanyanjiu\HugeMountain\app\src\main\AndroidManifest.xml:580:13-49
	android:label
		ADDED from D:\kaiyuanyanjiu\HugeMountain\app\src\main\AndroidManifest.xml:579:13-75
	android:name
		ADDED from D:\kaiyuanyanjiu\HugeMountain\app\src\main\AndroidManifest.xml:578:13-67
activity#com.aozhi.hugemountain.WorkStoreActivity
ADDED from D:\kaiyuanyanjiu\HugeMountain\app\src\main\AndroidManifest.xml:582:9-586:20
	android:screenOrientation
		ADDED from D:\kaiyuanyanjiu\HugeMountain\app\src\main\AndroidManifest.xml:585:13-49
	android:label
		ADDED from D:\kaiyuanyanjiu\HugeMountain\app\src\main\AndroidManifest.xml:584:13-75
	android:name
		ADDED from D:\kaiyuanyanjiu\HugeMountain\app\src\main\AndroidManifest.xml:583:13-46
activity#com.aozhi.hugemountain.activity.ChooseDatetimeActivity
ADDED from D:\kaiyuanyanjiu\HugeMountain\app\src\main\AndroidManifest.xml:587:9-591:20
	android:screenOrientation
		ADDED from D:\kaiyuanyanjiu\HugeMountain\app\src\main\AndroidManifest.xml:590:13-49
	android:label
		ADDED from D:\kaiyuanyanjiu\HugeMountain\app\src\main\AndroidManifest.xml:589:13-67
	android:name
		ADDED from D:\kaiyuanyanjiu\HugeMountain\app\src\main\AndroidManifest.xml:588:13-60
activity#com.aozhi.hugemountain.activity.PreordainAddStaffActivity
ADDED from D:\kaiyuanyanjiu\HugeMountain\app\src\main\AndroidManifest.xml:592:9-596:20
	android:screenOrientation
		ADDED from D:\kaiyuanyanjiu\HugeMountain\app\src\main\AndroidManifest.xml:595:13-49
	android:label
		ADDED from D:\kaiyuanyanjiu\HugeMountain\app\src\main\AndroidManifest.xml:594:13-71
	android:name
		ADDED from D:\kaiyuanyanjiu\HugeMountain\app\src\main\AndroidManifest.xml:593:13-63
activity#com.aozhi.hugemountain.activity.PreordainPayActivity
ADDED from D:\kaiyuanyanjiu\HugeMountain\app\src\main\AndroidManifest.xml:597:9-601:20
	android:screenOrientation
		ADDED from D:\kaiyuanyanjiu\HugeMountain\app\src\main\AndroidManifest.xml:600:13-49
	android:label
		ADDED from D:\kaiyuanyanjiu\HugeMountain\app\src\main\AndroidManifest.xml:599:13-65
	android:name
		ADDED from D:\kaiyuanyanjiu\HugeMountain\app\src\main\AndroidManifest.xml:598:13-58
activity#com.aozhi.hugemountain.activity.FunctionActivity
ADDED from D:\kaiyuanyanjiu\HugeMountain\app\src\main\AndroidManifest.xml:602:9-606:20
	android:screenOrientation
		ADDED from D:\kaiyuanyanjiu\HugeMountain\app\src\main\AndroidManifest.xml:605:13-49
	android:label
		ADDED from D:\kaiyuanyanjiu\HugeMountain\app\src\main\AndroidManifest.xml:604:13-60
	android:name
		ADDED from D:\kaiyuanyanjiu\HugeMountain\app\src\main\AndroidManifest.xml:603:13-54
activity#com.aozhi.hugemountain.activity.FeedbackActivity
ADDED from D:\kaiyuanyanjiu\HugeMountain\app\src\main\AndroidManifest.xml:607:9-611:20
	android:screenOrientation
		ADDED from D:\kaiyuanyanjiu\HugeMountain\app\src\main\AndroidManifest.xml:610:13-49
	android:label
		ADDED from D:\kaiyuanyanjiu\HugeMountain\app\src\main\AndroidManifest.xml:609:13-60
	android:name
		ADDED from D:\kaiyuanyanjiu\HugeMountain\app\src\main\AndroidManifest.xml:608:13-54
activity#com.aozhi.hugemountain.activity.SearchStoreActivity
ADDED from D:\kaiyuanyanjiu\HugeMountain\app\src\main\AndroidManifest.xml:612:9-616:20
	android:screenOrientation
		ADDED from D:\kaiyuanyanjiu\HugeMountain\app\src\main\AndroidManifest.xml:615:13-49
	android:label
		ADDED from D:\kaiyuanyanjiu\HugeMountain\app\src\main\AndroidManifest.xml:614:13-60
	android:name
		ADDED from D:\kaiyuanyanjiu\HugeMountain\app\src\main\AndroidManifest.xml:613:13-57
activity#com.aozhi.hugemountain.AccountStaffActivity
ADDED from D:\kaiyuanyanjiu\HugeMountain\app\src\main\AndroidManifest.xml:617:9-621:20
	android:screenOrientation
		ADDED from D:\kaiyuanyanjiu\HugeMountain\app\src\main\AndroidManifest.xml:620:13-49
	android:label
		ADDED from D:\kaiyuanyanjiu\HugeMountain\app\src\main\AndroidManifest.xml:619:13-65
	android:name
		ADDED from D:\kaiyuanyanjiu\HugeMountain\app\src\main\AndroidManifest.xml:618:13-71
activity#com.aozhi.hugemountain.activity.StaffOrderActivity
ADDED from D:\kaiyuanyanjiu\HugeMountain\app\src\main\AndroidManifest.xml:622:9-626:20
	android:screenOrientation
		ADDED from D:\kaiyuanyanjiu\HugeMountain\app\src\main\AndroidManifest.xml:625:13-49
	android:label
		ADDED from D:\kaiyuanyanjiu\HugeMountain\app\src\main\AndroidManifest.xml:624:13-65
	android:name
		ADDED from D:\kaiyuanyanjiu\HugeMountain\app\src\main\AndroidManifest.xml:623:13-56
activity#com.aozhi.hugemountain.activity.StaffOrderDetailActivity
ADDED from D:\kaiyuanyanjiu\HugeMountain\app\src\main\AndroidManifest.xml:627:9-631:20
	android:screenOrientation
		ADDED from D:\kaiyuanyanjiu\HugeMountain\app\src\main\AndroidManifest.xml:630:13-49
	android:label
		ADDED from D:\kaiyuanyanjiu\HugeMountain\app\src\main\AndroidManifest.xml:629:13-65
	android:name
		ADDED from D:\kaiyuanyanjiu\HugeMountain\app\src\main\AndroidManifest.xml:628:13-62
activity#com.aozhi.hugemountain.activity.AddRommActivity
ADDED from D:\kaiyuanyanjiu\HugeMountain\app\src\main\AndroidManifest.xml:632:9-636:20
	android:screenOrientation
		ADDED from D:\kaiyuanyanjiu\HugeMountain\app\src\main\AndroidManifest.xml:635:13-49
	android:label
		ADDED from D:\kaiyuanyanjiu\HugeMountain\app\src\main\AndroidManifest.xml:634:13-65
	android:name
		ADDED from D:\kaiyuanyanjiu\HugeMountain\app\src\main\AndroidManifest.xml:633:13-53
activity#com.aozhi.hugemountain.PKDetails
ADDED from D:\kaiyuanyanjiu\HugeMountain\app\src\main\AndroidManifest.xml:637:9-641:20
	android:screenOrientation
		ADDED from D:\kaiyuanyanjiu\HugeMountain\app\src\main\AndroidManifest.xml:640:13-49
	android:label
		ADDED from D:\kaiyuanyanjiu\HugeMountain\app\src\main\AndroidManifest.xml:639:13-65
	android:name
		ADDED from D:\kaiyuanyanjiu\HugeMountain\app\src\main\AndroidManifest.xml:638:13-60
activity#com.aozhi.hugemountain.UpdateRommActivity
ADDED from D:\kaiyuanyanjiu\HugeMountain\app\src\main\AndroidManifest.xml:642:9-646:20
	android:screenOrientation
		ADDED from D:\kaiyuanyanjiu\HugeMountain\app\src\main\AndroidManifest.xml:645:13-49
	android:label
		ADDED from D:\kaiyuanyanjiu\HugeMountain\app\src\main\AndroidManifest.xml:644:13-65
	android:name
		ADDED from D:\kaiyuanyanjiu\HugeMountain\app\src\main\AndroidManifest.xml:643:13-47
activity#com.aozhi.hugemountain.activity.RechargeMoneyActivity
ADDED from D:\kaiyuanyanjiu\HugeMountain\app\src\main\AndroidManifest.xml:647:9-68
	android:name
		ADDED from D:\kaiyuanyanjiu\HugeMountain\app\src\main\AndroidManifest.xml:647:19-65
activity#com.aozhi.hugemountain.StaffConsumerBillActivity
ADDED from D:\kaiyuanyanjiu\HugeMountain\app\src\main\AndroidManifest.xml:648:9-652:20
	android:screenOrientation
		ADDED from D:\kaiyuanyanjiu\HugeMountain\app\src\main\AndroidManifest.xml:651:13-49
	android:label
		ADDED from D:\kaiyuanyanjiu\HugeMountain\app\src\main\AndroidManifest.xml:650:13-71
	android:name
		ADDED from D:\kaiyuanyanjiu\HugeMountain\app\src\main\AndroidManifest.xml:649:13-54
activity#com.aozhi.hugemountain.activity.StaffServiceListActivity
ADDED from D:\kaiyuanyanjiu\HugeMountain\app\src\main\AndroidManifest.xml:653:9-657:20
	android:screenOrientation
		ADDED from D:\kaiyuanyanjiu\HugeMountain\app\src\main\AndroidManifest.xml:656:13-49
	android:label
		ADDED from D:\kaiyuanyanjiu\HugeMountain\app\src\main\AndroidManifest.xml:655:13-70
	android:name
		ADDED from D:\kaiyuanyanjiu\HugeMountain\app\src\main\AndroidManifest.xml:654:13-62
activity#com.aozhi.hugemountain.activity.AddOrderActivity
ADDED from D:\kaiyuanyanjiu\HugeMountain\app\src\main\AndroidManifest.xml:658:9-662:20
	android:screenOrientation
		ADDED from D:\kaiyuanyanjiu\HugeMountain\app\src\main\AndroidManifest.xml:661:13-49
	android:label
		ADDED from D:\kaiyuanyanjiu\HugeMountain\app\src\main\AndroidManifest.xml:660:13-70
	android:name
		ADDED from D:\kaiyuanyanjiu\HugeMountain\app\src\main\AndroidManifest.xml:659:13-54
service#com.baidu.location.f
ADDED from D:\kaiyuanyanjiu\HugeMountain\app\src\main\AndroidManifest.xml:664:9-668:19
	android:enabled
		ADDED from D:\kaiyuanyanjiu\HugeMountain\app\src\main\AndroidManifest.xml:666:13-35
	android:process
		ADDED from D:\kaiyuanyanjiu\HugeMountain\app\src\main\AndroidManifest.xml:667:13-38
	android:name
		ADDED from D:\kaiyuanyanjiu\HugeMountain\app\src\main\AndroidManifest.xml:665:13-48
activity#com.aozhi.hugemountain.activity.StoreInfoActivity
ADDED from D:\kaiyuanyanjiu\HugeMountain\app\src\main\AndroidManifest.xml:670:9-673:20
	android:label
		ADDED from D:\kaiyuanyanjiu\HugeMountain\app\src\main\AndroidManifest.xml:672:13-70
	android:name
		ADDED from D:\kaiyuanyanjiu\HugeMountain\app\src\main\AndroidManifest.xml:671:13-55
activity#com.aozhi.hugemountain.activity.StaffUserEditActivity
ADDED from D:\kaiyuanyanjiu\HugeMountain\app\src\main\AndroidManifest.xml:674:9-677:20
	android:label
		ADDED from D:\kaiyuanyanjiu\HugeMountain\app\src\main\AndroidManifest.xml:676:13-70
	android:name
		ADDED from D:\kaiyuanyanjiu\HugeMountain\app\src\main\AndroidManifest.xml:675:13-59
activity#com.aozhi.hugemountain.activity.StaffUserInfoActivity
ADDED from D:\kaiyuanyanjiu\HugeMountain\app\src\main\AndroidManifest.xml:678:9-681:20
	android:label
		ADDED from D:\kaiyuanyanjiu\HugeMountain\app\src\main\AndroidManifest.xml:680:13-70
	android:name
		ADDED from D:\kaiyuanyanjiu\HugeMountain\app\src\main\AndroidManifest.xml:679:13-59
activity#com.aozhi.hugemountain.activity.StoreEditActivity
ADDED from D:\kaiyuanyanjiu\HugeMountain\app\src\main\AndroidManifest.xml:682:9-685:20
	android:label
		ADDED from D:\kaiyuanyanjiu\HugeMountain\app\src\main\AndroidManifest.xml:684:13-70
	android:name
		ADDED from D:\kaiyuanyanjiu\HugeMountain\app\src\main\AndroidManifest.xml:683:13-55
activity#com.aozhi.hugemountain.activity.WithdrawalsStaff
ADDED from D:\kaiyuanyanjiu\HugeMountain\app\src\main\AndroidManifest.xml:686:9-689:20
	android:label
		ADDED from D:\kaiyuanyanjiu\HugeMountain\app\src\main\AndroidManifest.xml:688:13-70
	android:name
		ADDED from D:\kaiyuanyanjiu\HugeMountain\app\src\main\AndroidManifest.xml:687:13-54
activity#com.aozhi.hugemountain.activity.ProjectEditActivity
ADDED from D:\kaiyuanyanjiu\HugeMountain\app\src\main\AndroidManifest.xml:690:9-693:20
	android:label
		ADDED from D:\kaiyuanyanjiu\HugeMountain\app\src\main\AndroidManifest.xml:692:13-70
	android:name
		ADDED from D:\kaiyuanyanjiu\HugeMountain\app\src\main\AndroidManifest.xml:691:13-57
activity#com.aozhi.hugemountain.activity.StaffAccountActivity
ADDED from D:\kaiyuanyanjiu\HugeMountain\app\src\main\AndroidManifest.xml:694:9-697:20
	android:label
		ADDED from D:\kaiyuanyanjiu\HugeMountain\app\src\main\AndroidManifest.xml:696:13-70
	android:name
		ADDED from D:\kaiyuanyanjiu\HugeMountain\app\src\main\AndroidManifest.xml:695:13-58
activity#com.aozhi.hugemountain.activity.ShowEditActivity
ADDED from D:\kaiyuanyanjiu\HugeMountain\app\src\main\AndroidManifest.xml:698:9-701:20
	android:label
		ADDED from D:\kaiyuanyanjiu\HugeMountain\app\src\main\AndroidManifest.xml:700:13-70
	android:name
		ADDED from D:\kaiyuanyanjiu\HugeMountain\app\src\main\AndroidManifest.xml:699:13-54
activity#cn.beecloud.BCWechatPaymentActivity
ADDED from D:\kaiyuanyanjiu\HugeMountain\app\src\main\AndroidManifest.xml:702:9-705:75
	android:launchMode
		ADDED from D:\kaiyuanyanjiu\HugeMountain\app\src\main\AndroidManifest.xml:704:13-43
	android:theme
		ADDED from D:\kaiyuanyanjiu\HugeMountain\app\src\main\AndroidManifest.xml:705:13-72
	android:name
		ADDED from D:\kaiyuanyanjiu\HugeMountain\app\src\main\AndroidManifest.xml:703:13-63
activity-alias#com.aozhi.hugemountain.wxapi.WXPayEntryActivity
ADDED from D:\kaiyuanyanjiu\HugeMountain\app\src\main\AndroidManifest.xml:707:9-710:76
	android:exported
		ADDED from D:\kaiyuanyanjiu\HugeMountain\app\src\main\AndroidManifest.xml:709:13-36
	android:targetActivity
		ADDED from D:\kaiyuanyanjiu\HugeMountain\app\src\main\AndroidManifest.xml:710:13-73
	android:name
		ADDED from D:\kaiyuanyanjiu\HugeMountain\app\src\main\AndroidManifest.xml:708:13-53
activity#com.alipay.sdk.app.H5PayActivity
ADDED from D:\kaiyuanyanjiu\HugeMountain\app\src\main\AndroidManifest.xml:715:9-720:70
	android:screenOrientation
		ADDED from D:\kaiyuanyanjiu\HugeMountain\app\src\main\AndroidManifest.xml:719:13-47
	android:exported
		ADDED from D:\kaiyuanyanjiu\HugeMountain\app\src\main\AndroidManifest.xml:718:13-37
	android:windowSoftInputMode
		ADDED from D:\kaiyuanyanjiu\HugeMountain\app\src\main\AndroidManifest.xml:720:13-67
	android:configChanges
		ADDED from D:\kaiyuanyanjiu\HugeMountain\app\src\main\AndroidManifest.xml:717:13-74
	android:name
		ADDED from D:\kaiyuanyanjiu\HugeMountain\app\src\main\AndroidManifest.xml:716:13-60
activity#cn.beecloud.BCUnionPaymentActivity
ADDED from D:\kaiyuanyanjiu\HugeMountain\app\src\main\AndroidManifest.xml:725:9-732:58
	android:screenOrientation
		ADDED from D:\kaiyuanyanjiu\HugeMountain\app\src\main\AndroidManifest.xml:730:13-49
	android:excludeFromRecents
		ADDED from D:\kaiyuanyanjiu\HugeMountain\app\src\main\AndroidManifest.xml:728:13-46
	android:launchMode
		ADDED from D:\kaiyuanyanjiu\HugeMountain\app\src\main\AndroidManifest.xml:729:13-43
	android:windowSoftInputMode
		ADDED from D:\kaiyuanyanjiu\HugeMountain\app\src\main\AndroidManifest.xml:732:13-55
	android:configChanges
		ADDED from D:\kaiyuanyanjiu\HugeMountain\app\src\main\AndroidManifest.xml:727:13-63
	android:theme
		ADDED from D:\kaiyuanyanjiu\HugeMountain\app\src\main\AndroidManifest.xml:731:13-72
	android:name
		ADDED from D:\kaiyuanyanjiu\HugeMountain\app\src\main\AndroidManifest.xml:726:13-62
activity#cn.beecloud.demo.BillListActivity
ADDED from D:\kaiyuanyanjiu\HugeMountain\app\src\main\AndroidManifest.xml:734:9-737:20
	android:label
		ADDED from D:\kaiyuanyanjiu\HugeMountain\app\src\main\AndroidManifest.xml:736:13-61
	android:name
		ADDED from D:\kaiyuanyanjiu\HugeMountain\app\src\main\AndroidManifest.xml:735:13-61
activity#cn.beecloud.demo.RefundOrdersActivity
ADDED from D:\kaiyuanyanjiu\HugeMountain\app\src\main\AndroidManifest.xml:738:9-741:20
	android:label
		ADDED from D:\kaiyuanyanjiu\HugeMountain\app\src\main\AndroidManifest.xml:740:13-65
	android:name
		ADDED from D:\kaiyuanyanjiu\HugeMountain\app\src\main\AndroidManifest.xml:739:13-65
activity#cn.beecloud.demo.RefundStatusActivity
ADDED from D:\kaiyuanyanjiu\HugeMountain\app\src\main\AndroidManifest.xml:742:9-745:20
	android:label
		ADDED from D:\kaiyuanyanjiu\HugeMountain\app\src\main\AndroidManifest.xml:744:13-65
	android:name
		ADDED from D:\kaiyuanyanjiu\HugeMountain\app\src\main\AndroidManifest.xml:743:13-65
activity#cn.beecloud.demo.GenQRCodeActivity
ADDED from D:\kaiyuanyanjiu\HugeMountain\app\src\main\AndroidManifest.xml:746:9-749:20
	android:label
		ADDED from D:\kaiyuanyanjiu\HugeMountain\app\src\main\AndroidManifest.xml:748:13-62
	android:name
		ADDED from D:\kaiyuanyanjiu\HugeMountain\app\src\main\AndroidManifest.xml:747:13-62
activity#cn.beecloud.demo.ALIQRCodeActivity
ADDED from D:\kaiyuanyanjiu\HugeMountain\app\src\main\AndroidManifest.xml:750:9-753:20
	android:label
		ADDED from D:\kaiyuanyanjiu\HugeMountain\app\src\main\AndroidManifest.xml:752:13-61
	android:name
		ADDED from D:\kaiyuanyanjiu\HugeMountain\app\src\main\AndroidManifest.xml:751:13-62
activity#com.aozhi.hugemountain.activity.EvaluationActivity
ADDED from D:\kaiyuanyanjiu\HugeMountain\app\src\main\AndroidManifest.xml:754:9-65
	android:name
		ADDED from D:\kaiyuanyanjiu\HugeMountain\app\src\main\AndroidManifest.xml:754:19-62
activity#cn.beecloud.demo.OrdersEntryActivity
ADDED from D:\kaiyuanyanjiu\HugeMountain\app\src\main\AndroidManifest.xml:755:9-758:20
	android:label
		ADDED from D:\kaiyuanyanjiu\HugeMountain\app\src\main\AndroidManifest.xml:757:13-64
	android:name
		ADDED from D:\kaiyuanyanjiu\HugeMountain\app\src\main\AndroidManifest.xml:756:13-64
activity#cn.beecloud.demo.ShoppingCartActivity
ADDED from D:\kaiyuanyanjiu\HugeMountain\app\src\main\AndroidManifest.xml:759:9-762:20
	android:label
		ADDED from D:\kaiyuanyanjiu\HugeMountain\app\src\main\AndroidManifest.xml:761:13-45
	android:name
		ADDED from D:\kaiyuanyanjiu\HugeMountain\app\src\main\AndroidManifest.xml:760:13-65
activity#com.aozhi.hugemountain.activity.RoomActivity
ADDED from D:\kaiyuanyanjiu\HugeMountain\app\src\main\AndroidManifest.xml:763:9-59
	android:name
		ADDED from D:\kaiyuanyanjiu\HugeMountain\app\src\main\AndroidManifest.xml:763:19-56
activity#cn.jpush.android.ui.PushActivity
ADDED from D:\kaiyuanyanjiu\HugeMountain\app\src\main\AndroidManifest.xml:764:9-774:20
	android:exported
		ADDED from D:\kaiyuanyanjiu\HugeMountain\app\src\main\AndroidManifest.xml:767:13-37
	android:configChanges
		ADDED from D:\kaiyuanyanjiu\HugeMountain\app\src\main\AndroidManifest.xml:766:13-63
	android:name
		ADDED from D:\kaiyuanyanjiu\HugeMountain\app\src\main\AndroidManifest.xml:765:13-60
intent-filter#android.intent.category.DEFAULT+cn.jpush.android.ui.PushActivity+com.aozhi.hugemountain
ADDED from D:\kaiyuanyanjiu\HugeMountain\app\src\main\AndroidManifest.xml:768:13-773:29
action#cn.jpush.android.ui.PushActivity
ADDED from D:\kaiyuanyanjiu\HugeMountain\app\src\main\AndroidManifest.xml:769:17-75
	android:name
		ADDED from D:\kaiyuanyanjiu\HugeMountain\app\src\main\AndroidManifest.xml:769:25-72
category#com.aozhi.hugemountain
ADDED from D:\kaiyuanyanjiu\HugeMountain\app\src\main\AndroidManifest.xml:772:17-67
	android:name
		ADDED from D:\kaiyuanyanjiu\HugeMountain\app\src\main\AndroidManifest.xml:772:27-64
service#cn.jpush.android.service.DownloadService
ADDED from D:\kaiyuanyanjiu\HugeMountain\app\src\main\AndroidManifest.xml:776:9-780:19
	android:enabled
		ADDED from D:\kaiyuanyanjiu\HugeMountain\app\src\main\AndroidManifest.xml:778:13-35
	android:exported
		ADDED from D:\kaiyuanyanjiu\HugeMountain\app\src\main\AndroidManifest.xml:779:13-37
	android:name
		ADDED from D:\kaiyuanyanjiu\HugeMountain\app\src\main\AndroidManifest.xml:777:13-68
service#cn.jpush.android.service.PushService
ADDED from D:\kaiyuanyanjiu\HugeMountain\app\src\main\AndroidManifest.xml:783:9-793:19
	android:enabled
		ADDED from D:\kaiyuanyanjiu\HugeMountain\app\src\main\AndroidManifest.xml:785:13-35
	android:exported
		ADDED from D:\kaiyuanyanjiu\HugeMountain\app\src\main\AndroidManifest.xml:786:13-37
	android:name
		ADDED from D:\kaiyuanyanjiu\HugeMountain\app\src\main\AndroidManifest.xml:784:13-64
intent-filter#cn.jpush.android.intent.PUSH_TIME+cn.jpush.android.intent.PushService+cn.jpush.android.intent.REGISTER+cn.jpush.android.intent.REPORT
ADDED from D:\kaiyuanyanjiu\HugeMountain\app\src\main\AndroidManifest.xml:787:13-792:29
action#cn.jpush.android.intent.REGISTER
ADDED from D:\kaiyuanyanjiu\HugeMountain\app\src\main\AndroidManifest.xml:788:17-75
	android:name
		ADDED from D:\kaiyuanyanjiu\HugeMountain\app\src\main\AndroidManifest.xml:788:25-72
action#cn.jpush.android.intent.REPORT
ADDED from D:\kaiyuanyanjiu\HugeMountain\app\src\main\AndroidManifest.xml:789:17-73
	android:name
		ADDED from D:\kaiyuanyanjiu\HugeMountain\app\src\main\AndroidManifest.xml:789:25-70
action#cn.jpush.android.intent.PushService
ADDED from D:\kaiyuanyanjiu\HugeMountain\app\src\main\AndroidManifest.xml:790:17-78
	android:name
		ADDED from D:\kaiyuanyanjiu\HugeMountain\app\src\main\AndroidManifest.xml:790:25-75
action#cn.jpush.android.intent.PUSH_TIME
ADDED from D:\kaiyuanyanjiu\HugeMountain\app\src\main\AndroidManifest.xml:791:17-76
	android:name
		ADDED from D:\kaiyuanyanjiu\HugeMountain\app\src\main\AndroidManifest.xml:791:25-73
service#cn.jpush.android.service.DaemonService
ADDED from D:\kaiyuanyanjiu\HugeMountain\app\src\main\AndroidManifest.xml:797:9-806:19
	android:enabled
		ADDED from D:\kaiyuanyanjiu\HugeMountain\app\src\main\AndroidManifest.xml:799:13-35
	android:exported
		ADDED from D:\kaiyuanyanjiu\HugeMountain\app\src\main\AndroidManifest.xml:800:13-36
	android:name
		ADDED from D:\kaiyuanyanjiu\HugeMountain\app\src\main\AndroidManifest.xml:798:13-66
intent-filter#cn.jpush.android.intent.DaemonService+com.aozhi.hugemountain
ADDED from D:\kaiyuanyanjiu\HugeMountain\app\src\main\AndroidManifest.xml:801:13-805:29
action#cn.jpush.android.intent.DaemonService
ADDED from D:\kaiyuanyanjiu\HugeMountain\app\src\main\AndroidManifest.xml:802:17-80
	android:name
		ADDED from D:\kaiyuanyanjiu\HugeMountain\app\src\main\AndroidManifest.xml:802:25-77
receiver#cn.jpush.android.service.PushReceiver
ADDED from D:\kaiyuanyanjiu\HugeMountain\app\src\main\AndroidManifest.xml:809:9-829:20
	android:enabled
		ADDED from D:\kaiyuanyanjiu\HugeMountain\app\src\main\AndroidManifest.xml:811:13-35
	android:exported
		ADDED from D:\kaiyuanyanjiu\HugeMountain\app\src\main\AndroidManifest.xml:812:13-37
	android:name
		ADDED from D:\kaiyuanyanjiu\HugeMountain\app\src\main\AndroidManifest.xml:810:13-65
intent-filter#cn.jpush.android.intent.NOTIFICATION_RECEIVED_PROXY+com.aozhi.hugemountain
ADDED from D:\kaiyuanyanjiu\HugeMountain\app\src\main\AndroidManifest.xml:813:13-817:29
	android:priority
		ADDED from D:\kaiyuanyanjiu\HugeMountain\app\src\main\AndroidManifest.xml:813:28-51
action#cn.jpush.android.intent.NOTIFICATION_RECEIVED_PROXY
ADDED from D:\kaiyuanyanjiu\HugeMountain\app\src\main\AndroidManifest.xml:814:17-94
	android:name
		ADDED from D:\kaiyuanyanjiu\HugeMountain\app\src\main\AndroidManifest.xml:814:25-91
intent-filter#android.intent.action.USER_PRESENT+android.net.conn.CONNECTIVITY_CHANGE
ADDED from D:\kaiyuanyanjiu\HugeMountain\app\src\main\AndroidManifest.xml:818:13-821:29
action#android.intent.action.USER_PRESENT
ADDED from D:\kaiyuanyanjiu\HugeMountain\app\src\main\AndroidManifest.xml:819:17-77
	android:name
		ADDED from D:\kaiyuanyanjiu\HugeMountain\app\src\main\AndroidManifest.xml:819:25-74
action#android.net.conn.CONNECTIVITY_CHANGE
ADDED from D:\kaiyuanyanjiu\HugeMountain\app\src\main\AndroidManifest.xml:820:17-79
	android:name
		ADDED from D:\kaiyuanyanjiu\HugeMountain\app\src\main\AndroidManifest.xml:820:25-76
intent-filter#android.intent.action.PACKAGE_ADDED+android.intent.action.PACKAGE_REMOVED
ADDED from D:\kaiyuanyanjiu\HugeMountain\app\src\main\AndroidManifest.xml:823:13-828:29
action#android.intent.action.PACKAGE_ADDED
ADDED from D:\kaiyuanyanjiu\HugeMountain\app\src\main\AndroidManifest.xml:824:17-78
	android:name
		ADDED from D:\kaiyuanyanjiu\HugeMountain\app\src\main\AndroidManifest.xml:824:25-75
action#android.intent.action.PACKAGE_REMOVED
ADDED from D:\kaiyuanyanjiu\HugeMountain\app\src\main\AndroidManifest.xml:825:17-80
	android:name
		ADDED from D:\kaiyuanyanjiu\HugeMountain\app\src\main\AndroidManifest.xml:825:25-77
receiver#cn.jpush.android.service.AlarmReceiver
ADDED from D:\kaiyuanyanjiu\HugeMountain\app\src\main\AndroidManifest.xml:832:9-75
	android:name
		ADDED from D:\kaiyuanyanjiu\HugeMountain\app\src\main\AndroidManifest.xml:832:19-72
meta-data#JPUSH_CHANNEL
ADDED from D:\kaiyuanyanjiu\HugeMountain\app\src\main\AndroidManifest.xml:853:9-855:49
	android:value
		ADDED from D:\kaiyuanyanjiu\HugeMountain\app\src\main\AndroidManifest.xml:855:13-46
	android:name
		ADDED from D:\kaiyuanyanjiu\HugeMountain\app\src\main\AndroidManifest.xml:854:13-41
meta-data#JPUSH_APPKEY
ADDED from D:\kaiyuanyanjiu\HugeMountain\app\src\main\AndroidManifest.xml:856:9-858:56
	android:value
		ADDED from D:\kaiyuanyanjiu\HugeMountain\app\src\main\AndroidManifest.xml:858:13-53
	android:name
		ADDED from D:\kaiyuanyanjiu\HugeMountain\app\src\main\AndroidManifest.xml:857:13-40
